for create maven envarnment in eclips

---------------------------------------------------------------------------------------------------
You should install or update M2Eclipse. Go to "Help > Install New Software..." and type the following URL: http://download.eclipse.org/technology/m2e/releases/. Select all the elements and continue with the install. Don't forget to reboot Eclipse at the end of the process.

Once you made that, right-click your project and select "Maven > Update Project...".

------------------------------------------------------------------------------------------



